{ 
        "": {
                "info": {
                        "title": "",
                        "published": {
                                "2013": {
                                        "q1": {
                                                "jan": 1
                                        }
                                }
                        },
                        "for":  [{
                                "clients": [],
                                "director": ""
                                },{
                                "school": "",
                                "class": "",
                                "instructor": ""
                                },
                                "concept"
                        ],
                        "skills": {
                                "direction": [ //  branding and visual/art/creative direction; creativity and conceptualization skills needed
                                        "research", // bureau of labor statistics, census, etc.
                                        "writing", // tone-of-voice, copywriting
                                        "strategy", 
                                        "analysis", // sentiment, competitor or inspiration matrix
                                        "moodboards",         
                                        "brand" // integrating existing assets into new system, or developing based on previous
                                ],
                                "design": {
                                        "vfx": [
                                                "photoshop",
                                                "photoediting", {
                                                "3d_motion": [
                                                        "aftereffects",
                                                        "storyboards"
                                                ]}
                                        ],
                                        "Illustration_finearts": [
                                                "identity", 
                                                "illustration", {
                                                "drawing": [
                                                        "observational",
                                                        "architectural",
                                                        "freehand",
                                                        "mechanical",
                                                        "sketches"
                                                ]}
                                        ],
                                        "layout_print": [
                                                "infographics",
                                                "illustrator",
                                                "indesign",
                                                "grids",
                                                "decks",
                                                "reports"
                                        ]
                                },
                                "web": {
                                        "concepts":[
                                                "cms",
                                                "databases",
                                                "wordpress"
                                        ],
                                        "ui": [ {
                                                "elements": [
                                                        "badges",
                                                        "dashboards"
                                                ]},
                                                "icons",
                                                "material"
                                        ],
                                        "ux": [
                                                "storyboards",
                                                "flowcharts"
                                        ],
                                        "code": [
                                                "python",
                                                "html",{
                                                "css": [
                                                        "bootstrap",
                                                        "sass"
                                                ]},{
                                                "js": [
                                                        "jquery",
                                                        "json",
                                                        "angular",
                                                        "node",
                                                        "knockout"
                                                ]},{
                                                "sql": [
                                                        "mssql",
                                                        "mysql"
                                                ]}
                                        ] 
                                } 
                        } 
                },
                "content": {
                        "site": {
                                "brief": {
                                        "header": "",
                                        "copy": ""
                                },
                                "page": {
                                        "section": {
                                                "class": "",
                                                "": {
                                                        "header": "",
                                                        "copy": ""
                                                },
                                                "": {
                                                        "header": "",
                                                        "copy": ""
                                                },
                                                "": {
                                                        "header": "",
                                                        "copy": ""
                                                }
                                        }
                                }
                        },
                        "portfolio": {
                                "page": {
                                        "num": 11,
                                        "collection": {
                                                "name": "",
                                                "proj": []
                                        }
                                },
                                "proj_id": 46,
                                "header": "",
                                "copy": "",
                                "foci": [
                                        "Branding & Identity",
                                        "Awards & Features",
                                        "Print & Layout",
                                        "Drawing & Fine Arts",
                                        "Volunteer & Spec Work",
                                        "Web"
                                ]
                        }
                }
        }
}
        